{
    "type": "minecraft:empty",
    "pools": [
        {
            "rolls": 1.0,
            "entries": [
                {
                    "type": "minecraft:empty",
                    "weight": 9
                },
                {
                    "type": "minecraft:item",
                    "weight": 1,
                    "name": "minecraft:flint"
                }
            ]
        }
    ]
}
