{
    "type": "minecraft:crafting_shaped",
    "pattern": [
        "###",
        "RDQ",
        "###"
    ],
    "key": {
        "Q": {
            "item": "minecraft:quartz"
        },
        "R": {
            "item": "minecraft:redstone"
        },
        "#": {
            "item": "minecraft:cobblestone"
        },
        "D": {
            "item": "minecraft:red_dye"
        }
    },
    "result": {
        "item": "composableautomation:red_photosensor"
    }
}
